1 10 20
11 20 21
21 30 112
31 40 107
41 50 110
51 60 113
61 70 108
71 80 116
81 90 111
91 100 119
101 110 114
111 120 70
121 130 122
131 140 91
141 150 117
151 160 86
221 230 115
231 240 128
241 250 110
251 260 123
261 270 123
271 280 92
1271 10280 262
2271 20280 279
3271 30280 308
4271 40280 324
5271 50280 324
11271 110280 354
12271 120280 354
2600 5700 238
4100 7200 262
5600 8700 262
7100 10200 260
8600 11700 268
10100 13200 268
11600 14700 276
13100 16200 276
14600 17700 279
16100 19200 279
52100 55200 340
53600 56700 322
55100 58200 322
56600 59700 304
58100 61200 335
59600 62700 335
61100 64200 330
62600 65700 330
64100 67200 299
65600 68700 312
67100 70200 312
68600 71700 325
70100 73200 325
71600 74700 294
73100 76200 325
74600 77700 351
76100 79200 351
77600 80700 338
79100 82200 320
80600 83700 320
82100 85200 320
83600 86700 320
85100 88200 333
86600 89700 333
88100 91200 315
123 2 119
223 102 125
323 202 131
423 302 144
523 402 142
623 502 137
723 602 171
823 702 171
923 802 179
1023 902 174
1123 1002 169
1223 1102 182
100 100 26
200 200 27
300 300 17
400 400 28
50000 50000 128
51632 51632 110
53264 53264 97
54896 54896 123
56528 56528 35
58160 58160 74
59792 59792 105
500 520 124
550 570 137
600 620 132
650 670 145
700 720 171
750 770 153
800 820 135
850 870 148
900 920 130
950 970 143
1000 1020 156
1050 1070 169
1100 1120 138
1150 1170 182
1200 1220 164
1250 1270 177
1300 1320 177
1350 1370 159
1400 1420 172
1450 1470 141
