.......
----------------------------------------------------------------------
Ran 15 tests in 0.466s

OK
Name             Stmts   Miss Branch BrPart  Cover   Missing
------------------------------------------------------------
Collatz.py          73      2     42      5    92%   111-112, 66->81, 67->81, 92->88, 104->100, 109->111
TestCollatz.py      64      0      0      0   100%
------------------------------------------------------------
TOTAL              137      2     42      5    95%
