3 3 8
1 1000 179
1001 2000 182
225 9000 262
335 697 145
1001 5040 238
502 6000 238
502 5045 238
50001 51000 278
99999 99999 227
1 10 20
100 200 125
201 210 89
900 1000 174
1000 900 174
3 3 8
1 1 1
1000 10000 262
1 10 20
900 1100 174
999 1002 143
999 1001 143
1001 1925 182
1001 2504 209
1104 4545 238
225 3005 217
1001 2000 182
3 100 119
4000 80000 351
500 5405 238
605 8 144
70 9899 262
999001 33454 525
676554 361251 509
818173 246583 509
955831 297321 525
890448 333257 525
17930 316971 443
503360 868475 525
779998 42329 509
515953 555740 452
796250 693694 504
169424 157995 370
554640 106398 470
167513 209280 373
653320 518080 509
353444 963804 525
799394 342143 509
327363 995442 525
135615 862930 525
633239 802343 504
859190 374973 525
99347 987429 525
748373 498355 509
473067 656003 509
771495 117849 509
824945 256282 509
900490 392221 525
538218 450914 470
955569 133749 525
654598 475023 509
652926 889930 525
198051 891733 525
84349 764963 509
958874 766377 525
972761 500428 525
859112 546203 525
654819 427099 509
533827 22181 470
38021 957053 525
372261 42355 443
498573 956437 525
233090 236601 381
763629 334704 509
776340 506436 509
570455 172173 470
561336 919426 525
346733 105431 443
110456 866277 525
311679 59207 443
44654 369216 443
860128 258529 525
900499 587073 525
473011 320104 449
16510 818456 509
876438 652458 525
742008 315070 509
514098 77957 470
192833 273910 443
425728 588848 470
78839 678953 509
336167 898760 525
489795 911726 525
955573 116331 525
906252 640498 525
587282 722305 509
278994 989567 525
378633 898041 525
912626 385708 525
79466 484579 449
805726 456474 509
458546 117054 449
550992 898881 525
126357 261793 443
716546 878903 525
71186 281442 443
490000 384864 449
560177 273751 470
843722 378372 525
332307 120609 443
303019 310261 371
441160 286639 449
250109 322690 407
292246 113470 443
157330 29238 383
50818 348597 443
450006 904432 525
738977 796188 468
950825 561529 525
510949 90616 449
791228 142293 509
921225 34763 525
449702 393370 449
890479 324401 525
119798 295632 443
348504 501622 449
537071 81652 470
852598 967823 507
797115 162158 509
79573 528341 470
906103 902113 383
9488 103033 351
455778 9249 449
154193 248784 443
719763 216542 509
556927 670923 509
871893 808419 525
759556 436775 509
690470 339479 509
457311 10191 449
891086 662445 525
139928 577733 470
320289 572868 470
940365 958344 414
63251 449839 449
350665 111681 443
845357 412874 525
532510 257569 470
740522 987022 525
90454 315435 443
526782 378166 470
201520 632123 509
43435 359795 443
155565 879746 525
32049 402691 443
488251 322912 449
361676 343255 441
64154 1671 340
71124 651720 509
679693 576650 509
54449 15418 340
841883 131735 525
717771 686791 504
136417 880954 525
39371 842771 525
661520 30503 509
907666 851959 445
870322 555240 525
927931 217427 525
6480 163181 383
157119 949240 525
714898 293002 509
292687 94164 443
203374 960770 525
231506 601855 470
452103 754813 509
321300 506357 449
965654 929921 507
755643 196841 509
931801 2843 525
16247 748686 509
972560 123419 525
401774 529731 470
874059 999999 507
60000 850089 525
32 69409 340
6504 555555 470
705690 898988 525
90000 1 351
6000 900000 525
658 94 145
